%FSLAX23Y23*%
%MOIN*%
G04 EasyPC Gerber Version 17.0 Build 3379 *
%ADD17C,0.00300*%
%ADD10C,0.00500*%
%ADD21C,0.00600*%
X0Y0D02*
D02*
D10*
X840Y772D02*
X754D01*
Y835*
X840*
Y772*
X1077Y201D02*
X1054Y177D01*
X1047*
X1041Y184*
Y191*
X1050Y201*
X1041Y191D02*
X1034Y191D01*
X1027Y197*
Y204*
X1050Y227*
X1024Y254D02*
X1001Y230D01*
X994*
X987Y237*
Y244*
X997Y254*
X987Y244D02*
X981D01*
X974Y250*
Y257*
X997Y280*
X971Y307D02*
X948Y283D01*
X941*
X934Y290*
Y297*
X944Y307*
X934Y297D02*
X928Y297D01*
X921Y303*
Y310*
X944Y333*
X888Y336D02*
X888Y343D01*
X895*
X895Y336*
X888*
X848Y396D02*
X838Y393D01*
X828Y396*
X822Y403*
X818Y413*
X822Y423*
X828Y429*
X838Y433*
X848Y429*
X855Y423*
X858Y413*
X855Y403*
X848Y396*
X812Y466D02*
X775Y429D01*
X795Y449D02*
X785Y446D01*
X775Y449*
X769Y456*
X765Y466*
X769Y476*
X775Y482*
X785Y486*
X795Y482*
X802Y476*
X805Y466*
X802Y456*
X795Y449*
X709Y522D02*
Y515D01*
X716Y509*
X722Y502*
X732Y499*
X742Y502*
X752Y512*
X752Y519*
X749Y529*
X742Y535*
X732Y539*
X726Y539*
X722Y535*
Y529*
X726Y519*
X732Y512*
X742Y509*
X749*
X679Y545D02*
X706Y572D01*
X696Y562D02*
X699Y572D01*
X696Y582*
X689Y588*
X679Y592*
X669Y588*
X653Y572*
X636Y608D02*
X626Y605D01*
X616Y608*
X610Y615*
X606Y625*
X610Y635*
X616Y641*
X626Y645*
X636Y641*
X643Y635*
X646Y625*
X643Y615*
X626Y598D02*
X666Y638D01*
X570Y701D02*
X580Y698D01*
X590Y688*
X593Y678*
X590Y668*
X583Y661*
X573Y658*
X563Y661*
X553Y671*
X550Y681*
X507Y718D02*
X533Y744D01*
X543Y754D02*
X464Y761*
X464Y767D01*
X470*
X470Y761*
X464*
X411Y860D02*
X421Y857D01*
X431Y847*
X434Y837*
X431Y827*
X424Y820*
X414Y817*
X404Y820*
X394Y830*
X391Y840*
X371Y873D02*
X361Y870D01*
X351Y873*
X344Y880*
X341Y890*
X344Y900*
X351Y907*
X361Y910*
X371Y907*
X378Y900*
X381Y890*
X378Y880*
X371Y873*
X308Y916D02*
X335Y943D01*
X331Y940D02*
Y946D01*
X325Y953*
X318*
X308Y943*
X318Y953D02*
X318Y960D01*
X311Y966*
X305*
X281Y943*
X1049Y772D02*
X963D01*
Y835*
X1049*
Y772*
X1146Y637D02*
X1114D01*
Y566*
X1146*
Y637*
X1184D02*
X1152D01*
Y566*
X1184*
Y637*
X1220Y484D02*
Y516D01*
X1150*
Y484*
X1220*
Y522D02*
Y554D01*
X1150*
Y522*
X1220*
X1222Y637D02*
X1190D01*
Y566*
X1222*
Y637*
X1224Y772D02*
X1138D01*
Y835*
X1224*
Y772*
X1260Y637D02*
X1228D01*
Y566*
X1260*
Y637*
X1339Y528D02*
Y560D01*
X1268*
Y528*
X1339*
Y566D02*
Y598D01*
X1268*
Y566*
X1339*
X1399Y772D02*
X1313D01*
Y835*
X1399*
Y772*
X1574D02*
X1488D01*
Y835*
X1574*
Y772*
X1715Y1566D02*
X713D01*
X5Y858*
Y718*
X712Y11*
X1713*
X2421Y719*
Y859*
X2381Y899*
X1715Y1566*
X2421Y859D02*
X1714Y1566D01*
X713*
X5Y858*
Y710*
X712Y3*
X1713*
X2421Y711*
Y859*
D02*
D17*
X797Y1027D02*
Y1049D01*
X785*
X781Y1047*
X780Y1045*
X778Y1042*
Y1034*
X780Y1030*
X781Y1029*
X785Y1027*
X797*
X763D02*
X755D01*
X759D02*
Y1049D01*
X763Y1045*
X876Y815D02*
X878Y817D01*
X880Y821*
Y827*
X878Y830*
X876Y832*
X872Y834*
X865*
X861Y832*
X859Y830*
X857Y827*
Y821*
X859Y817*
X861Y815*
X880Y800D02*
Y793D01*
Y797D02*
X857D01*
X861Y800*
X880Y770D02*
Y763D01*
Y767D02*
X857D01*
X861Y770*
X988Y1029D02*
Y1051D01*
X976*
X973Y1049*
X971Y1047*
X969Y1044*
Y1036*
X971Y1032*
X973Y1031*
X976Y1029*
X988*
X943D02*
X958D01*
X944Y1042*
X943Y1046*
X944Y1049*
X948Y1051*
X954*
X958Y1049*
X1084Y818D02*
X1086Y820D01*
X1088Y824*
Y830*
X1086Y833*
X1084Y835*
X1080Y837*
X1073*
X1069Y835*
X1067Y833*
X1065Y830*
Y824*
X1067Y820*
X1069Y818*
X1088Y803D02*
Y796D01*
Y800D02*
X1065D01*
X1069Y803*
X1088Y762D02*
Y777D01*
X1075Y764*
X1071Y762*
X1067Y764*
X1065Y768*
Y773*
X1067Y777*
X1122Y530D02*
X1124Y529D01*
X1127Y527*
X1133*
X1137Y529*
X1139Y530*
X1141Y534*
Y542*
X1139Y545*
X1137Y547*
X1133Y549*
X1127*
X1124Y547*
X1122Y545*
X1107Y527D02*
X1099D01*
X1103D02*
Y549D01*
X1107Y545*
X1081Y532D02*
X1079Y536D01*
X1075Y538*
X1071*
X1067Y536*
X1066Y532*
X1067Y529*
X1071Y527*
X1075*
X1079Y529*
X1081Y532*
Y538*
X1079Y544*
X1075Y547*
X1071Y549*
X1132Y704D02*
X1134Y706D01*
X1136Y710*
Y716*
X1134Y719*
X1132Y721*
X1128Y723*
X1121*
X1117Y721*
X1115Y719*
X1113Y716*
Y710*
X1115Y706*
X1117Y704*
X1136Y689D02*
Y682D01*
Y686D02*
X1113D01*
X1117Y689*
X1136Y654D02*
X1113D01*
X1128Y663*
Y648*
X1125Y494D02*
X1127Y493D01*
X1130Y491*
X1136*
X1140Y493*
X1142Y494*
X1144Y498*
Y506*
X1142Y509*
X1140Y511*
X1136Y513*
X1130*
X1127Y511*
X1125Y509*
X1110Y491D02*
X1102D01*
X1106D02*
Y513D01*
X1110Y509*
X1084Y491D02*
X1069Y513D01*
X1084*
X1173Y703D02*
X1175Y705D01*
X1177Y709*
Y715*
X1175Y718*
X1173Y720*
X1169Y722*
X1162*
X1158Y720*
X1156Y718*
X1154Y715*
Y709*
X1156Y705*
X1158Y703*
X1177Y688D02*
Y681D01*
Y685D02*
X1154D01*
X1158Y688*
X1175Y662D02*
X1177Y658D01*
Y653*
X1175Y649*
X1171Y647*
X1169*
X1166Y649*
X1164Y653*
Y662*
X1154*
Y647*
X1191Y1033D02*
Y1055D01*
X1179*
X1175Y1053*
X1174Y1051*
X1172Y1048*
Y1040*
X1174Y1036*
X1175Y1035*
X1179Y1033*
X1191*
X1159Y1035D02*
X1155Y1033D01*
X1151*
X1147Y1035*
X1146Y1038*
X1147Y1042*
X1151Y1044*
X1155*
X1151D02*
X1147Y1046D01*
X1146Y1050*
X1147Y1053*
X1151Y1055*
X1155*
X1159Y1053*
X1216Y703D02*
X1218Y705D01*
X1220Y709*
Y715*
X1218Y718*
X1216Y720*
X1212Y722*
X1205*
X1201Y720*
X1199Y718*
X1197Y715*
Y709*
X1199Y705*
X1201Y703*
X1220Y688D02*
Y681D01*
Y685D02*
X1197D01*
X1201Y688*
X1209Y656D02*
Y653D01*
X1207Y649*
X1203Y647*
X1199Y649*
X1197Y653*
Y656*
X1199Y660*
X1203Y662*
X1207Y660*
X1209Y656*
X1210Y660*
X1214Y662*
X1218Y660*
X1220Y656*
Y653*
X1218Y649*
X1214Y647*
X1210Y649*
X1209Y653*
X1252Y821D02*
X1254Y823D01*
X1256Y827*
Y833*
X1254Y836*
X1252Y838*
X1248Y840*
X1241*
X1237Y838*
X1235Y836*
X1233Y833*
Y827*
X1235Y823*
X1237Y821*
X1256Y806D02*
Y799D01*
Y803D02*
X1233D01*
X1237Y806*
X1254Y778D02*
X1256Y774D01*
Y771*
X1254Y767*
X1250Y765*
X1247Y767*
X1245Y771*
Y774*
Y771D02*
X1243Y767D01*
X1239Y765*
X1235Y767*
X1233Y771*
Y774*
X1235Y778*
X1253Y703D02*
X1255Y705D01*
X1257Y709*
Y715*
X1255Y718*
X1253Y720*
X1249Y722*
X1242*
X1238Y720*
X1236Y718*
X1234Y715*
Y709*
X1236Y705*
X1238Y703*
X1257Y688D02*
Y681D01*
Y685D02*
X1234D01*
X1238Y688*
X1257Y656D02*
X1255Y653D01*
X1251Y649*
X1246Y647*
X1240*
X1236Y649*
X1234Y653*
Y656*
X1236Y660*
X1240Y662*
X1244Y660*
X1246Y656*
Y653*
X1244Y649*
X1240Y647*
X1391Y1038D02*
Y1060D01*
X1380*
X1377Y1058*
X1375Y1056*
X1373Y1053*
Y1045*
X1375Y1041*
X1377Y1040*
X1380Y1038*
X1391*
X1352D02*
Y1060D01*
X1361Y1045*
X1347*
X1412Y575D02*
X1414Y574D01*
X1417Y572*
X1423*
X1427Y574*
X1429Y575*
X1431Y579*
Y587*
X1429Y590*
X1427Y592*
X1423Y594*
X1417*
X1414Y592*
X1412Y590*
X1386Y572D02*
X1401D01*
X1387Y585*
X1386Y589*
X1387Y592*
X1391Y594*
X1397*
X1401Y592*
X1367Y572D02*
X1359D01*
X1363D02*
Y594D01*
X1367Y590*
X1413Y536D02*
X1415Y535D01*
X1418Y533*
X1424*
X1428Y535*
X1430Y536*
X1432Y540*
Y548*
X1430Y551*
X1428Y553*
X1424Y555*
X1418*
X1415Y553*
X1413Y551*
X1387Y533D02*
X1402D01*
X1388Y546*
X1387Y550*
X1388Y553*
X1392Y555*
X1398*
X1402Y553*
X1357Y533D02*
X1372D01*
X1358Y546*
X1357Y550*
X1358Y553*
X1362Y555*
X1368*
X1372Y553*
X1427Y820D02*
X1429Y822D01*
X1431Y826*
Y832*
X1429Y835*
X1427Y837*
X1423Y839*
X1416*
X1412Y837*
X1410Y835*
X1408Y832*
Y826*
X1410Y822*
X1412Y820*
X1431Y794D02*
Y809D01*
X1418Y796*
X1414Y794*
X1410Y796*
X1408Y800*
Y805*
X1410Y809*
X1429Y777D02*
X1431Y773D01*
Y770*
X1429Y766*
X1425Y764*
X1414*
X1410Y766*
X1408Y770*
Y773*
X1410Y777*
X1414Y779*
X1425*
X1429Y777*
X1410Y766*
X1591Y1039D02*
Y1061D01*
X1579*
X1575Y1059*
X1574Y1057*
X1572Y1054*
Y1046*
X1574Y1042*
X1575Y1041*
X1579Y1039*
X1591*
X1561Y1041D02*
X1557Y1039D01*
X1551*
X1547Y1041*
X1546Y1044*
Y1046*
X1547Y1050*
X1551Y1052*
X1561*
Y1061*
X1546*
X1604Y821D02*
X1606Y823D01*
X1608Y827*
Y833*
X1606Y836*
X1604Y838*
X1600Y840*
X1593*
X1589Y838*
X1587Y836*
X1585Y833*
Y827*
X1587Y823*
X1589Y821*
X1608Y795D02*
Y810D01*
X1595Y797*
X1591Y795*
X1587Y797*
X1585Y801*
Y806*
X1587Y810*
X1606Y778D02*
X1608Y774D01*
Y771*
X1606Y767*
X1602Y765*
X1599Y767*
X1597Y771*
Y774*
Y771D02*
X1595Y767D01*
X1591Y765*
X1587Y767*
X1585Y771*
Y774*
X1587Y778*
X1797Y1042D02*
Y1064D01*
X1785*
X1782Y1062*
X1780Y1060*
X1778Y1057*
Y1049*
X1780Y1045*
X1782Y1044*
X1785Y1042*
X1797*
X1766Y1047D02*
X1765Y1051D01*
X1761Y1053*
X1757*
X1753Y1051*
X1752Y1047*
X1753Y1044*
X1757Y1042*
X1761*
X1765Y1044*
X1766Y1047*
Y1053*
X1765Y1059*
X1761Y1062*
X1757Y1064*
D02*
D21*
X766Y1157D02*
X785D01*
X780Y1146D02*
G75*
G02X770I-5J11D01*
G01*
X785Y1068D02*
X766D01*
X960Y1159D02*
X979D01*
X974Y1148D02*
G75*
G02X964I-5J11D01*
G01*
X979Y1070D02*
X960D01*
X1162Y1163D02*
X1181D01*
X1176Y1152D02*
G75*
G02X1166I-5J11D01*
G01*
X1181Y1074D02*
X1162D01*
X1360Y1165D02*
X1379D01*
X1374Y1154D02*
G75*
G02X1364I-5J11D01*
G01*
X1379Y1076D02*
X1360D01*
X1560Y1167D02*
X1579D01*
X1574Y1156D02*
G75*
G02X1564I-5J11D01*
G01*
X1579Y1078D02*
X1560D01*
X1762Y1169D02*
X1781D01*
X1776Y1158D02*
G75*
G02X1766I-5J11D01*
G01*
X1781Y1080D02*
X1762D01*
X0Y0D02*
M02*
