%!PS-Adobe-2.0 EPSF-1.2
%%Creator: MATLAB, The MathWorks, Inc. Version 8.1.0.604 (R2013a). Operating System: Darwin 13.4.0 Darwin Kernel Version 13.4.0: Sun Aug 17 19:50:11 PDT 2014; root:xnu-2422.115.4~1/RELEASE_X86_64 x86_64.
%%Title: ./error.eps
%%CreationDate: 09/17/2015  16:43:56
%%DocumentNeededFonts: Helvetica
%%DocumentProcessColors: Cyan Magenta Yellow Black
%%Extensions: CMYK
%%Pages: 1
%%BoundingBox:    46   218   551   591
%%EndComments

%%BeginProlog
% MathWorks dictionary
/MathWorks 160 dict begin
% definition operators
/bdef {bind def} bind def
/ldef {load def} bind def
/xdef {exch def} bdef
/xstore {exch store} bdef
% operator abbreviations
/c  /clip ldef
/cc /concat ldef
/cp /closepath ldef
/gr /grestore ldef
/gs /gsave ldef
/mt /moveto ldef
/np /newpath ldef
/cm /currentmatrix ldef
/sm /setmatrix ldef
/rm /rmoveto ldef
/rl /rlineto ldef
/s {show newpath} bdef
/sc {setcmykcolor} bdef
/sr /setrgbcolor ldef
/sg /setgray ldef
/w /setlinewidth ldef
/j /setlinejoin ldef
/cap /setlinecap ldef
/rc {rectclip} bdef
/rf {rectfill} bdef
% page state control
/pgsv () def
/bpage {/pgsv save def} bdef
/epage {pgsv restore} bdef
/bplot /gsave ldef
/eplot {stroke grestore} bdef
% orientation switch
/portraitMode 0 def /landscapeMode 1 def /rotateMode 2 def
% coordinate system mappings
/dpi2point 0 def
% font control
/FontSize 0 def
/FMS {/FontSize xstore findfont [FontSize 0 0 FontSize neg 0 0]
  makefont setfont} bdef
/reencode {exch dup where {pop load} {pop StandardEncoding} ifelse
  exch dup 3 1 roll findfont dup length dict begin
  { 1 index /FID ne {def}{pop pop} ifelse } forall
  /Encoding exch def currentdict end definefont pop} bdef
/isroman {findfont /CharStrings get /Agrave known} bdef
/FMSR {3 1 roll 1 index dup isroman {reencode} {pop pop} ifelse
  exch FMS} bdef
/csm {1 dpi2point div -1 dpi2point div scale neg translate
 dup landscapeMode eq {pop -90 rotate}
  {rotateMode eq {90 rotate} if} ifelse} bdef
% line types: solid, dotted, dashed, dotdash
/SO { [] 0 setdash } bdef
/DO { [.5 dpi2point mul 4 dpi2point mul] 0 setdash } bdef
/DA { [6 dpi2point mul] 0 setdash } bdef
/DD { [.5 dpi2point mul 4 dpi2point mul 6 dpi2point mul 4
  dpi2point mul] 0 setdash } bdef
% macros for lines and objects
/L {lineto stroke} bdef
/MP {3 1 roll moveto 1 sub {rlineto} repeat} bdef
/AP {{rlineto} repeat} bdef
/PDlw -1 def
/W {/PDlw currentlinewidth def setlinewidth} def
/PP {closepath eofill} bdef
/DP {closepath stroke} bdef
/MR {4 -2 roll moveto dup  0 exch rlineto exch 0 rlineto
  neg 0 exch rlineto closepath} bdef
/FR {MR stroke} bdef
/PR {MR fill} bdef
/L1i {{currentfile picstr readhexstring pop} image} bdef
/tMatrix matrix def
/MakeOval {newpath tMatrix currentmatrix pop translate scale
0 0 1 0 360 arc tMatrix setmatrix} bdef
/FO {MakeOval stroke} bdef
/PO {MakeOval fill} bdef
/PD {currentlinewidth 2 div 0 360 arc fill
   PDlw -1 eq not {PDlw w /PDlw -1 def} if} def
/FA {newpath tMatrix currentmatrix pop translate scale
  0 0 1 5 -2 roll arc tMatrix setmatrix stroke} bdef
/PA {newpath tMatrix currentmatrix pop	translate 0 0 moveto scale
  0 0 1 5 -2 roll arc closepath tMatrix setmatrix fill} bdef
/FAn {newpath tMatrix currentmatrix pop translate scale
  0 0 1 5 -2 roll arcn tMatrix setmatrix stroke} bdef
/PAn {newpath tMatrix currentmatrix pop translate 0 0 moveto scale
  0 0 1 5 -2 roll arcn closepath tMatrix setmatrix fill} bdef
/vradius 0 def /hradius 0 def /lry 0 def
/lrx 0 def /uly 0 def /ulx 0 def /rad 0 def
/MRR {/vradius xdef /hradius xdef /lry xdef /lrx xdef /uly xdef
  /ulx xdef newpath tMatrix currentmatrix pop ulx hradius add uly
  vradius add translate hradius vradius scale 0 0 1 180 270 arc 
  tMatrix setmatrix lrx hradius sub uly vradius add translate
  hradius vradius scale 0 0 1 270 360 arc tMatrix setmatrix
  lrx hradius sub lry vradius sub translate hradius vradius scale
  0 0 1 0 90 arc tMatrix setmatrix ulx hradius add lry vradius sub
  translate hradius vradius scale 0 0 1 90 180 arc tMatrix setmatrix
  closepath} bdef
/FRR {MRR stroke } bdef
/PRR {MRR fill } bdef
/MlrRR {/lry xdef /lrx xdef /uly xdef /ulx xdef /rad lry uly sub 2 div def
  newpath tMatrix currentmatrix pop ulx rad add uly rad add translate
  rad rad scale 0 0 1 90 270 arc tMatrix setmatrix lrx rad sub lry rad
  sub translate rad rad scale 0 0 1 270 90 arc tMatrix setmatrix
  closepath} bdef
/FlrRR {MlrRR stroke } bdef
/PlrRR {MlrRR fill } bdef
/MtbRR {/lry xdef /lrx xdef /uly xdef /ulx xdef /rad lrx ulx sub 2 div def
  newpath tMatrix currentmatrix pop ulx rad add uly rad add translate
  rad rad scale 0 0 1 180 360 arc tMatrix setmatrix lrx rad sub lry rad
  sub translate rad rad scale 0 0 1 0 180 arc tMatrix setmatrix
  closepath} bdef
/FtbRR {MtbRR stroke } bdef
/PtbRR {MtbRR fill } bdef
/stri 6 array def /dtri 6 array def
/smat 6 array def /dmat 6 array def
/tmat1 6 array def /tmat2 6 array def /dif 3 array def
/asub {/ind2 exch def /ind1 exch def dup dup
  ind1 get exch ind2 get sub exch } bdef
/tri_to_matrix {
  2 0 asub 3 1 asub 4 0 asub 5 1 asub
  dup 0 get exch 1 get 7 -1 roll astore } bdef
/compute_transform {
  dmat dtri tri_to_matrix tmat1 invertmatrix 
  smat stri tri_to_matrix tmat2 concatmatrix } bdef
/ds {stri astore pop} bdef
/dt {dtri astore pop} bdef
/db {2 copy /cols xdef /rows xdef mul dup 3 mul string
  currentfile exch readhexstring pop
  dup 0 3 index getinterval /rbmap xdef
  dup 2 index dup getinterval /gbmap xdef
  1 index dup 2 mul exch getinterval /bbmap xdef pop pop}bdef
/it {gs np dtri aload pop moveto lineto lineto cp c
  cols rows 8 compute_transform 
  rbmap gbmap bbmap true 3 colorimage gr}bdef
/il {newpath moveto lineto stroke}bdef
currentdict end def
%%EndProlog

%%BeginSetup
MathWorks begin

0 cap

end
%%EndSetup

%%Page: 1 1
%%BeginPageSetup
%%PageBoundingBox:    46   218   551   591
MathWorks begin
bpage
%%EndPageSetup

%%BeginObject: obj1
bplot

/dpi2point 12 def
portraitMode 0216 7344 csm

  344   247  6056  4477 MR c np
85 dict begin %Colortable dictionary
/c0 { 0.000000 0.000000 0.000000 sr} bdef
/c1 { 1.000000 1.000000 1.000000 sr} bdef
/c2 { 0.900000 0.000000 0.000000 sr} bdef
/c3 { 0.000000 0.820000 0.000000 sr} bdef
/c4 { 0.000000 0.000000 0.800000 sr} bdef
/c5 { 0.910000 0.820000 0.320000 sr} bdef
/c6 { 1.000000 0.260000 0.820000 sr} bdef
/c7 { 0.000000 0.820000 0.820000 sr} bdef
c0
1 j
1 sg
   0    0 6924 5187 PR
6 w
0 1081 5365 0 0 -1081 900 1470 4 MP
PP
-5365 0 0 1081 5365 0 0 -1081 900 1470 5 MP stroke
4 w
DO
0 sg
1027 1470 mt 1027  389 L
1027  389 mt 1027  389 L
2305 1470 mt 2305  389 L
2305  389 mt 2305  389 L
3582 1470 mt 3582  389 L
3582  389 mt 3582  389 L
4859 1470 mt 4859  389 L
4859  389 mt 4859  389 L
6137 1470 mt 6137  389 L
6137  389 mt 6137  389 L
 900 1470 mt 6265 1470 L
6265 1470 mt 6265 1470 L
 900 1161 mt 6265 1161 L
6265 1161 mt 6265 1161 L
 900  852 mt 6265  852 L
6265  852 mt 6265  852 L
 900  543 mt 6265  543 L
6265  543 mt 6265  543 L
SO
6 w
 900 1470 mt 6265 1470 L
 900  389 mt 6265  389 L
 900 1470 mt  900  389 L
6265 1470 mt 6265  389 L
 900 1470 mt 6265 1470 L
 900 1470 mt  900  389 L
1027 1470 mt 1027 1416 L
1027  389 mt 1027  442 L
%%IncludeResource: font Helvetica
/Helvetica /ISOLatin1Encoding 120 FMSR

 944 1615 mt 
(2.5) s
2305 1470 mt 2305 1416 L
2305  389 mt 2305  442 L
2272 1615 mt 
(3) s
3582 1470 mt 3582 1416 L
3582  389 mt 3582  442 L
3499 1615 mt 
(3.5) s
4859 1470 mt 4859 1416 L
4859  389 mt 4859  442 L
4826 1615 mt 
(4) s
6137 1470 mt 6137 1416 L
6137  389 mt 6137  442 L
6054 1615 mt 
(4.5) s
 900 1470 mt  953 1470 L
6265 1470 mt 6211 1470 L
 729 1514 mt 
(-2) s
 900 1161 mt  953 1161 L
6265 1161 mt 6211 1161 L
 799 1205 mt 
(0) s
 900  852 mt  953  852 L
6265  852 mt 6211  852 L
 799  896 mt 
(2) s
 900  543 mt  953  543 L
6265  543 mt 6211  543 L
 799  587 mt 
(4) s
 900 1470 mt 6265 1470 L
 900  389 mt 6265  389 L
 900 1470 mt  900  389 L
6265 1470 mt 6265  389 L
gs 900 389 5366 1082 MR c np
14.4 w
/c8 { 0.000000 0.000000 1.000000 sr} bdef
c8
10 15 11 16 10 29 10 8 10 -8 11 11 10 12 10 19 
10 2 11 -9 10 8 10 -20 10 -21 11 -37 10 8 10 -5 
10 -16 11 -7 10 32 10 40 10 1 11 20 10 -92 10 -31 
10 -27 10 -6 11 21 10 -12 10 25 10 39 11 0 10 12 
10 4 10 -22 11 11 10 -42 10 -10 10 58 11 -8 10 -10 
10 -35 10 35 11 -5 10 -2 10 17 10 9 10 16 11 -12 
10 23 10 -19 10 12 11 -20 10 0 10 9 10 10 11 30 
10 -10 10 -19 10 -21 11 -41 10 -64 10 9 10 -54 11 -16 
10 11 10 10 10 28 11 11 10 24 10 47 10 -37 10 -16 
11 37 10 -2 10 -18 10 -1 11 -39 10 -42 10 -35 10 -5 
11 -3 10 29 10 16 10 -54 11 1 10 32 10 35 10 -20 
11 43 10 1 10 29 10 11 11 2 10 -28 10 -21 10 -11 
10 -9 11 -14 10 -32 5123 1256 100 MP stroke
10 -54 10 -27 11 24 10 -2 10 41 10 23 11 26 10 8 
10 47 10 19 11 74 10 3 10 -35 10 -6 11 -2 10 -27 
10 -26 10 8 11 6 10 19 10 1 10 -8 10 23 11 -66 
10 -27 10 -30 10 18 11 57 10 10 10 9 10 -25 11 21 
10 -35 10 -28 10 -82 11 31 10 -18 10 -25 10 15 11 -17 
10 -2 10 -43 10 38 10 6 11 -13 10 18 10 1 10 19 
11 5 10 12 10 2 10 49 11 4 10 -19 10 61 10 -7 
11 4 10 -26 10 20 10 -45 11 -17 10 9 10 31 10 7 
11 -4 10 39 10 32 10 -43 10 2 11 -20 10 -28 10 12 
10 -15 11 70 10 25 10 20 10 -24 11 -11 10 -36 10 -37 
10 6 11 35 10 -34 10 40 10 6 11 8 10 0 10 -26 
10 -13 11 -33 10 -43 10 -9 10 38 10 7 11 5 10 75 
10 63 10 -14 11 23 4109 1083 100 MP stroke
10 -23 10 -10 10 -8 11 24 10 -6 10 7 10 33 11 -14 
10 52 10 -23 10 -58 11 4 10 -3 10 -29 10 76 10 16 
11 29 10 27 10 14 10 -36 11 37 10 -1 10 43 10 -49 
11 15 10 13 10 -53 10 9 11 -51 10 8 10 -5 10 18 
11 -13 10 8 10 -46 10 -39 11 -28 10 8 10 40 10 -6 
10 33 11 -2 10 5 10 -17 10 -26 11 10 10 -12 10 -15 
10 -8 11 53 10 -18 10 24 10 15 11 4 10 15 10 -19 
10 40 11 4 10 14 10 -6 10 -25 11 -50 10 -42 10 -19 
10 -29 10 -21 11 -25 10 -9 10 42 10 27 11 38 10 -1 
10 47 10 -8 11 -30 10 -23 10 34 10 -19 11 13 10 -21 
10 -1 10 -30 11 34 10 -38 10 -1 10 -17 11 62 10 -32 
10 0 10 67 10 -57 11 1 10 -12 10 7 10 -45 11 23 
10 9 10 55 10 -16 3096 1121 100 MP stroke
11 51 10 -11 10 30 10 -50 11 9 10 28 10 -38 10 30 
11 -16 10 60 10 -30 10 0 10 -12 11 -18 10 53 10 -26 
10 9 11 -26 10 8 10 -12 10 -27 11 9 10 3 10 -7 
10 1 11 40 10 32 10 -39 10 21 11 -3 10 -8 10 -34 
10 24 11 -4 10 -5 10 -49 10 2 10 -51 11 42 10 38 
10 -7 10 -23 11 -12 10 -18 10 -12 10 -7 11 27 10 20 
10 38 10 -11 11 10 10 -21 10 -24 10 -28 11 -52 10 -14 
10 16 10 -25 11 19 10 25 10 -14 10 18 10 41 11 -16 
10 -12 10 -25 10 -20 11 -16 10 9 10 0 10 -29 11 3 
10 29 10 28 10 34 11 -7 10 -11 10 -44 10 49 11 -11 
10 36 10 16 10 41 10 -51 11 -35 10 5 10 -26 10 17 
11 24 10 12 10 34 10 9 11 -47 10 26 10 -73 10 39 
11 -23 10 2 10 8 2082 1176 100 MP stroke
10 -58 11 6 10 -6 10 -4 10 15 11 41 10 -42 10 -11 
10 -7 10 23 11 -9 10 60 10 -7 10 16 11 -6 10 -2 
10 26 10 -21 11 -40 10 -48 10 -52 10 -23 11 5 10 45 
10 20 10 35 11 -27 10 -38 10 -40 10 13 11 1 10 -20 
10 23 10 -19 10 55 11 -16 10 -1 10 27 10 19 11 12 
10 -23 10 -14 10 -41 11 63 10 21 10 8 10 4 11 -16 
10 -32 10 3 10 7 11 83 10 -11 10 -19 10 11 11 -35 
10 -21 10 6 10 26 10 8 11 -15 10 -32 10 -12 10 -11 
11 -18 10 -8 10 36 10 -18 11 -27 10 22 10 -31 10 -34 
11 -23 10 -4 10 10 10 -2 11 49 10 26 10 32 10 38 
10 -10 11 28 10 50 10 17 10 41 11 -28 10 4 10 -2 
10 -54 11 -20 10 -52 10 37 10 -57 11 -2 10 -33 10 13 
10 -27 11 10 10 -22 1068 1332 100 MP stroke
10 45 10 4 11 -31 10 61 1027 1253 5 MP stroke
DA
/c9 { 1.000000 0.000000 0.000000 sr} bdef
c9
10 24 11 18 10 11 10 6 10 7 11 9 10 12 10 12 
10 6 11 -1 10 -7 10 -12 10 -17 11 -21 10 -20 10 -15 
10 -2 11 14 10 25 10 24 10 8 11 -15 10 -36 10 -44 
10 -36 10 -17 11 7 10 23 10 28 10 23 11 12 10 2 
10 -6 10 -8 11 -8 10 -5 10 -2 10 2 11 3 10 2 
10 -1 10 -2 11 -1 10 3 10 9 10 14 10 14 11 9 
10 0 10 -6 10 -10 11 -5 10 3 10 10 10 14 11 10 
10 -1 10 -16 10 -29 11 -38 10 -42 10 -38 10 -28 11 -14 
10 3 10 17 10 25 11 25 10 17 10 8 10 2 10 2 
11 5 10 4 10 -5 10 -18 11 -33 10 -38 10 -32 10 -14 
11 2 10 10 10 8 10 0 11 -5 10 -1 10 11 10 25 
11 31 10 25 10 12 10 -1 11 -9 10 -10 10 -8 10 -11 
10 -20 11 -31 10 -36 5123 1275 100 MP stroke
10 -31 10 -18 11 -1 10 15 10 23 10 26 11 27 10 30 
10 34 10 36 11 31 10 18 10 1 10 -16 11 -25 10 -25 
10 -15 10 -1 11 12 10 16 10 11 10 -3 10 -21 11 -32 
10 -31 10 -16 10 7 11 26 10 33 10 22 10 1 11 -23 
10 -36 10 -38 10 -29 11 -16 10 -9 10 -7 10 -9 11 -11 
10 -10 10 -4 10 1 10 5 11 5 10 6 10 8 10 10 
11 12 10 14 10 15 10 16 11 17 10 18 10 15 10 10 
11 -1 10 -10 10 -17 10 -16 11 -11 10 -1 10 10 10 19 
11 22 10 21 10 11 10 -4 10 -19 11 -26 10 -20 10 -2 
10 21 11 36 10 35 10 18 10 -7 11 -28 10 -33 10 -25 
10 -7 11 9 10 17 10 17 10 12 11 4 10 -5 10 -14 
10 -25 11 -31 10 -29 10 -16 10 6 10 28 11 44 10 47 
10 37 10 21 11 4 4109 1089 100 MP stroke
10 -7 10 -12 10 -9 11 -1 10 10 10 18 10 21 11 16 
10 2 10 -13 10 -22 11 -22 10 -9 10 10 10 29 10 37 
11 33 10 21 10 7 10 0 11 1 10 8 10 12 10 10 
11 0 10 -15 10 -26 10 -28 11 -19 10 -4 10 8 10 9 
11 -3 10 -19 10 -33 10 -33 11 -20 10 0 10 16 10 24 
10 19 11 9 10 -3 10 -12 10 -15 11 -15 10 -11 10 -4 
10 5 11 13 10 17 10 16 10 10 11 6 10 5 10 10 
10 15 11 15 10 6 10 -8 10 -25 11 -36 10 -39 10 -38 
10 -31 10 -24 11 -13 10 2 10 19 10 32 11 36 10 28 
10 12 10 -4 11 -13 10 -13 10 -4 10 2 11 4 10 -2 
10 -10 10 -14 11 -14 10 -8 10 1 10 6 11 10 10 10 
10 8 10 5 10 -2 11 -8 10 -14 10 -15 10 -10 11 3 
10 17 10 28 10 29 3096 1099 100 MP stroke
11 21 10 9 10 -3 10 -9 11 -8 10 0 10 6 10 11 
11 10 10 5 10 0 10 -2 10 -2 11 0 10 2 10 2 
10 1 11 -4 10 -8 10 -13 10 -14 11 -11 10 -2 10 8 
10 16 11 19 10 15 10 5 10 -5 11 -9 10 -7 10 -3 
10 -2 11 -6 10 -16 10 -23 10 -20 10 -8 11 7 10 15 
10 12 10 -2 11 -19 10 -26 10 -19 10 1 11 21 10 31 
10 27 10 11 11 -8 10 -23 10 -29 10 -30 11 -26 10 -20 
10 -12 10 -3 11 8 10 16 10 20 10 15 10 6 11 -4 
10 -11 10 -15 10 -16 11 -15 10 -13 10 -8 10 -1 11 11 
10 20 10 23 10 16 11 4 10 -7 10 -10 10 -2 11 15 
10 26 10 27 10 12 10 -12 11 -30 10 -31 10 -15 10 11 
11 31 10 33 10 18 10 -4 11 -21 10 -23 10 -12 10 -1 
11 2 10 -6 10 -18 2082 1197 100 MP stroke
10 -24 11 -17 10 -2 10 12 10 14 11 5 10 -8 10 -14 
10 -6 10 7 11 20 10 23 10 17 10 9 11 4 10 4 
10 1 10 -13 11 -33 10 -51 10 -49 10 -28 11 8 10 34 
10 38 10 17 11 -14 10 -37 10 -36 10 -17 11 4 10 13 
10 8 10 -1 10 -2 11 8 10 23 10 28 10 16 11 -6 
10 -22 10 -19 10 1 11 23 10 32 10 18 10 -6 11 -23 
10 -20 10 1 10 26 11 35 10 22 10 -3 10 -24 11 -26 
10 -11 10 6 10 16 10 8 11 -9 10 -23 10 -26 10 -18 
11 -6 10 4 10 4 10 1 11 -7 10 -13 10 -20 10 -23 
11 -23 10 -15 10 0 10 19 11 34 10 37 10 31 10 22 
10 17 11 22 10 30 10 35 10 26 11 8 10 -14 10 -28 
10 -32 11 -28 10 -21 10 -18 10 -17 11 -19 10 -17 10 -13 
10 -7 11 -2 10 2 1068 1315 100 MP stroke
10 6 10 13 11 19 10 24 1027 1253 5 MP stroke
DD
0 sg
10 63 11 39 10 12 10 -2 10 -1 11 9 10 16 10 15 
10 6 11 -4 10 -10 10 -13 10 -15 11 -18 10 -20 10 -16 
10 -3 11 14 10 26 10 25 10 8 11 -16 10 -36 10 -43 
10 -33 10 -15 11 5 10 19 10 25 10 22 11 15 10 4 
10 -4 10 -10 11 -11 10 -6 10 -1 10 5 11 4 10 2 
10 -3 10 -4 11 -1 10 5 10 11 10 13 10 12 11 7 
10 0 10 -5 10 -8 11 -5 10 2 10 10 10 13 11 11 
10 1 10 -15 10 -28 11 -38 10 -41 10 -37 10 -27 11 -13 
10 1 10 15 10 24 11 25 10 19 10 9 10 3 10 0 
11 3 10 2 10 -5 10 -17 11 -32 10 -37 10 -30 10 -14 
11 2 10 11 10 7 10 -1 11 -6 10 -2 10 12 10 25 
11 30 10 24 10 11 10 -1 11 -8 10 -9 10 -8 10 -11 
10 -20 11 -30 10 -34 5123 1272 100 MP stroke
10 -30 10 -18 11 0 10 13 10 23 10 26 11 28 10 29 
10 32 10 34 11 29 10 18 10 1 10 -15 11 -25 10 -25 
10 -15 10 0 11 13 10 17 10 10 10 -5 10 -21 11 -30 
10 -28 10 -14 10 6 11 23 10 29 10 21 10 1 11 -19 
10 -35 10 -37 10 -29 11 -18 10 -8 10 -5 10 -9 11 -11 
10 -10 10 -5 10 1 10 5 11 7 10 7 10 7 10 9 
11 11 10 14 10 15 10 15 11 16 10 16 10 16 10 11 
11 1 10 -9 10 -17 10 -18 11 -10 10 0 10 11 10 19 
11 22 10 18 10 10 10 -3 10 -17 11 -24 10 -20 10 -3 
10 19 11 35 10 35 10 18 10 -7 11 -28 10 -34 10 -23 
10 -5 11 9 10 17 10 14 10 8 11 3 10 -3 10 -12 
10 -23 11 -31 10 -30 10 -17 10 6 10 30 11 44 10 45 
10 34 10 19 11 5 4109 1093 100 MP stroke
10 -5 10 -9 10 -8 11 -3 10 7 10 18 10 23 11 18 
10 3 10 -14 10 -26 11 -23 10 -9 10 13 10 29 10 36 
11 30 10 19 10 8 10 2 11 3 10 7 10 10 10 8 
11 0 10 -12 10 -23 10 -26 11 -21 10 -7 10 6 10 10 
11 -1 10 -17 10 -32 10 -34 11 -22 10 0 10 19 10 24 
10 19 11 6 10 -6 10 -12 10 -13 11 -12 10 -9 10 -4 
10 4 11 12 10 18 10 16 10 11 11 5 10 3 10 9 
10 16 11 17 10 8 10 -9 10 -27 11 -37 10 -39 10 -35 
10 -28 10 -22 11 -14 10 0 10 18 10 32 11 37 10 28 
10 11 10 -6 11 -13 10 -10 10 -3 10 2 11 2 10 -4 
10 -11 10 -12 11 -11 10 -6 10 -2 10 3 11 7 10 10 
10 11 10 8 10 0 11 -11 10 -17 10 -17 10 -8 11 6 
10 19 10 26 10 26 3096 1100 100 MP stroke
11 19 10 10 10 -1 10 -8 11 -8 10 -3 10 5 10 10 
11 12 10 8 10 1 10 -4 10 -5 11 -2 10 3 10 5 
10 1 11 -5 10 -11 10 -14 10 -13 11 -7 10 0 10 8 
10 14 11 17 10 14 10 6 10 -3 11 -9 10 -8 10 -3 
10 -2 11 -6 10 -15 10 -22 10 -22 10 -9 11 7 10 18 
10 14 10 -2 11 -21 10 -28 10 -19 10 2 11 22 10 32 
10 26 10 8 11 -9 10 -21 10 -27 10 -27 11 -25 10 -22 
10 -15 10 -3 11 10 10 19 10 20 10 13 10 4 11 -5 
10 -9 10 -13 10 -14 11 -15 10 -16 10 -11 10 -1 11 12 
10 22 10 24 10 15 11 2 10 -8 10 -10 10 0 11 15 
10 25 10 25 10 11 10 -11 11 -28 10 -30 10 -15 10 10 
11 29 10 33 10 19 10 -4 11 -21 10 -22 10 -13 10 -1 
11 2 10 -5 10 -18 2082 1197 100 MP stroke
10 -23 11 -16 10 -1 10 12 10 13 11 3 10 -9 10 -14 
10 -5 10 8 11 21 10 21 10 15 10 8 11 5 10 5 
10 1 10 -13 11 -34 10 -50 10 -49 10 -26 11 8 10 33 
10 37 10 16 11 -13 10 -34 10 -34 10 -17 11 2 10 12 
10 10 10 1 10 0 11 8 10 20 10 24 10 14 11 -4 
10 -18 10 -18 10 0 11 19 10 29 10 18 10 -3 11 -21 
10 -20 10 0 10 22 11 34 10 24 10 -1 10 -21 11 -27 
10 -14 10 6 10 16 10 10 11 -7 10 -24 10 -28 10 -19 
11 -4 10 5 10 6 10 -1 11 -10 10 -15 10 -19 10 -21 
11 -21 10 -14 10 0 10 18 11 33 10 38 10 31 10 21 
10 16 11 20 10 29 10 36 10 27 11 8 10 -16 10 -30 
10 -32 11 -23 10 -18 10 -17 10 -21 11 -23 10 -18 10 -8 
10 0 11 1 10 -5 1068 1312 100 MP stroke
10 -5 10 8 11 32 10 59 1027 1218 5 MP stroke
gr

14.4 w
DD
3361 1758 mt 
(Time \(s\)) s
 639 1341 mt  -90 rotate
(Amplitude \() s
90 rotate
%%IncludeResource: font Symbol
/Symbol /ISOLatin1Encoding 120 FMSR

 639  735 mt  -90 rotate
(m) s
90 rotate
%%IncludeResource: font Helvetica
/Helvetica /ISOLatin1Encoding 120 FMSR

 639  666 mt  -90 rotate
( V\)) s
90 rotate
 883 1513 mt 
( ) s
6249  431 mt 
( ) s
SO
6 w
1 sg
0 480 1808 0 0 -480 4398 929 4 MP
PP
-1808 0 0 480 1808 0 0 -480 4398 929 5 MP stroke
4 w
DO
SO
6 w
0 sg
4398  929 mt 6206  929 L
4398  449 mt 6206  449 L
4398  929 mt 4398  449 L
6206  929 mt 6206  449 L
4398  929 mt 6206  929 L
4398  929 mt 4398  449 L
4398  929 mt 6206  929 L
4398  449 mt 6206  449 L
4398  929 mt 4398  449 L
6206  929 mt 6206  449 L
4845  583 mt 
(EEG signal) s
gs 4398 449 1809 481 MR c np
14.4 w
c8
344 0 4466 540 2 MP stroke
gr

14.4 w
c8
0 sg
4845  732 mt 
(EEG signal filtered) s
gs 4398 449 1809 481 MR c np
DA
c9
344 0 4466 689 2 MP stroke
SO
gr

c9
0 sg
4845  880 mt 
(EEG siganl reconstruted) s
gs 4398 449 1809 481 MR c np
DD
344 0 4466 837 2 MP stroke
SO
6 w
gr

6 w
1 sg
0 1081 5365 0 0 -1081 900 3024 4 MP
PP
-5365 0 0 1081 5365 0 0 -1081 900 3024 5 MP stroke
4 w
DO
0 sg
 900 3024 mt  900 1943 L
 900 1943 mt  900 1943 L
1972 3024 mt 1972 1943 L
1972 1943 mt 1972 1943 L
3045 3024 mt 3045 1943 L
3045 1943 mt 3045 1943 L
4119 3024 mt 4119 1943 L
4119 1943 mt 4119 1943 L
5192 3024 mt 5192 1943 L
5192 1943 mt 5192 1943 L
6265 3024 mt 6265 1943 L
6265 1943 mt 6265 1943 L
 900 3024 mt 6265 3024 L
6265 3024 mt 6265 3024 L
 900 2706 mt 6265 2706 L
6265 2706 mt 6265 2706 L
 900 2388 mt 6265 2388 L
6265 2388 mt 6265 2388 L
 900 2070 mt 6265 2070 L
6265 2070 mt 6265 2070 L
SO
6 w
 900 3024 mt 6265 3024 L
 900 1943 mt 6265 1943 L
 900 3024 mt  900 1943 L
6265 3024 mt 6265 1943 L
 900 3024 mt 6265 3024 L
 900 3024 mt  900 1943 L
 900 3024 mt  900 2970 L
 900 1943 mt  900 1996 L
 784 3169 mt 
(4.25) s
1972 3024 mt 1972 2970 L
1972 1943 mt 1972 1996 L
1889 3169 mt 
(4.3) s
3045 3024 mt 3045 2970 L
3045 1943 mt 3045 1996 L
2929 3169 mt 
(4.35) s
4119 3024 mt 4119 2970 L
4119 1943 mt 4119 1996 L
4036 3169 mt 
(4.4) s
5192 3024 mt 5192 2970 L
5192 1943 mt 5192 1996 L
5076 3169 mt 
(4.45) s
6265 3024 mt 6265 2970 L
6265 1943 mt 6265 1996 L
6182 3169 mt 
(4.5) s
 900 3024 mt  953 3024 L
6265 3024 mt 6211 3024 L
 629 3068 mt 
(-0.5) s
 900 2706 mt  953 2706 L
6265 2706 mt 6211 2706 L
 799 2750 mt 
(0) s
 900 2388 mt  953 2388 L
6265 2388 mt 6211 2388 L
 699 2432 mt 
(0.5) s
 900 2070 mt  953 2070 L
6265 2070 mt 6211 2070 L
 799 2114 mt 
(1) s
 900 3024 mt 6265 3024 L
 900 1943 mt 6265 1943 L
 900 3024 mt  900 1943 L
6265 3024 mt 6265 1943 L
gs 900 1943 5366 1082 MR c np
12.6 w
c8
87 58 86 67 86 121 86 32 86 -31 86 42 86 50 86 79 
86 7 86 -33 86 30 86 -80 86 -88 86 -152 86 33 86 -21 
86 -65 86 -29 86 132 86 163 86 3 86 83 86 -377 86 -128 
86 -112 86 -25 86 87 86 -49 86 105 86 159 86 0 86 47 
86 20 86 -92 86 46 86 -172 86 -42 86 238 86 -34 86 -38 
86 -146 86 146 86 -23 86 -8 86 71 86 37 86 63 86 -46 
86 92 86 -78 86 48 86 -82 86 0 86 41 86 39 86 123 
86 -41 86 -78 86 -88 86 -168 86 -264 86 39 32 -83 900 2810 64 MP stroke
gr

12.6 w
c8
gs 813 1926 5539 972 MR c np
24 W
932 2727 PD
24 W
1018 2766 PD
24 W
1104 2502 PD
24 W
1190 2334 PD
24 W
1276 2246 PD
24 W
1362 2168 PD
24 W
1448 2127 PD
24 W
1534 2250 PD
24 W
1620 2289 PD
24 W
1706 2330 PD
24 W
1792 2330 PD
24 W
1878 2248 PD
24 W
1964 2296 PD
24 W
2050 2218 PD
24 W
2136 2310 PD
24 W
2222 2264 PD
24 W
2308 2327 PD
24 W
2394 2364 PD
24 W
2480 2435 PD
24 W
2566 2427 PD
24 W
2652 2404 PD
24 W
2738 2550 PD
24 W
2824 2404 PD
24 W
2910 2366 PD
24 W
2996 2332 PD
24 W
3082 2570 PD
24 W
3168 2528 PD
24 W
3254 2356 PD
24 W
3340 2402 PD
24 W
3426 2310 PD
24 W
3512 2330 PD
24 W
3598 2377 PD
24 W
3684 2377 PD
24 W
3770 2536 PD
24 W
3856 2641 PD
24 W
3942 2592 PD
24 W
4028 2679 PD
24 W
4114 2654 PD
24 W
4200 2542 PD
24 W
4286 2414 PD
24 W
4372 2037 PD
24 W
4458 2120 PD
24 W
4544 2123 PD
24 W
4630 2286 PD
24 W
4716 2418 PD
24 W
4802 2389 PD
24 W
4888 2324 PD
24 W
4974 2303 PD
24 W
5060 2336 PD
24 W
5146 2184 PD
24 W
5232 2096 PD
24 W
5318 2016 PD
24 W
5404 2046 PD
24 W
5490 2013 PD
24 W
5576 2020 PD
24 W
5662 2099 PD
24 W
5748 2149 PD
24 W
5834 2191 PD
24 W
5920 2160 PD
24 W
6006 2192 PD
24 W
6092 2313 PD
24 W
6178 2380 PD
24 W
6265 2438 PD
gr

gs 900 1943 5366 1082 MR c np
DA
c9
87 97 86 74 86 45 86 27 86 26 86 40 86 50 86 45 
86 26 86 -3 86 -29 86 -50 86 -70 86 -85 86 -85 86 -60 
86 -7 86 57 86 102 86 98 86 34 86 -61 86 -148 86 -182 
86 -150 86 -67 86 28 86 95 86 115 86 94 86 51 86 7 
86 -23 86 -36 86 -33 86 -21 86 -5 86 8 86 12 86 8 
86 -3 86 -10 86 -6 86 13 86 38 86 57 86 58 86 37 
86 3 86 -29 86 -38 86 -23 86 12 86 44 86 58 86 39 
86 -5 86 -64 86 -119 86 -158 86 -171 86 -157 32 -44 900 2882 64 MP stroke
DD
0 sg
87 260 86 159 86 51 86 -8 86 -4 86 36 86 68 86 61 
86 24 86 -17 86 -42 86 -52 86 -60 86 -74 86 -84 86 -66 
86 -13 86 57 86 109 86 102 86 34 86 -66 86 -149 86 -175 
86 -139 86 -62 86 21 86 80 86 102 86 91 86 60 86 19 
86 -19 86 -41 86 -44 86 -26 86 -1 86 17 86 19 86 5 
86 -10 86 -15 86 -5 86 20 86 44 86 55 86 50 86 29 
86 0 86 -23 86 -31 86 -20 86 9 86 39 86 55 86 44 
86 3 86 -58 86 -118 86 -157 86 -168 86 -152 32 -42 900 2868 64 MP stroke
gr

0 sg
DD
3361 3312 mt 
(Time \(s\)) s
 539 2895 mt  -90 rotate
(Amplitude \() s
90 rotate
%%IncludeResource: font Symbol
/Symbol /ISOLatin1Encoding 120 FMSR

 539 2289 mt  -90 rotate
(m) s
90 rotate
%%IncludeResource: font Helvetica
/Helvetica /ISOLatin1Encoding 120 FMSR

 539 2220 mt  -90 rotate
( V\)) s
90 rotate
SO
6 w
1 sg
0 1081 5366 0 0 -1081 899 4578 4 MP
PP
-5366 0 0 1081 5366 0 0 -1081 899 4578 5 MP stroke
4 w
DO
0 sg
 900 4578 mt  900 3497 L
 900 3497 mt  900 3497 L
1387 4578 mt 1387 3497 L
1387 3497 mt 1387 3497 L
1875 4578 mt 1875 3497 L
1875 3497 mt 1875 3497 L
2363 4578 mt 2363 3497 L
2363 3497 mt 2363 3497 L
2850 4578 mt 2850 3497 L
2850 3497 mt 2850 3497 L
3338 4578 mt 3338 3497 L
3338 3497 mt 3338 3497 L
3826 4578 mt 3826 3497 L
3826 3497 mt 3826 3497 L
4314 4578 mt 4314 3497 L
4314 3497 mt 4314 3497 L
4801 4578 mt 4801 3497 L
4801 3497 mt 4801 3497 L
5289 4578 mt 5289 3497 L
5289 3497 mt 5289 3497 L
5777 4578 mt 5777 3497 L
5777 3497 mt 5777 3497 L
 899 4578 mt 6265 4578 L
6265 4578 mt 6265 4578 L
 899 4307 mt 6265 4307 L
6265 4307 mt 6265 4307 L
 899 4037 mt 6265 4037 L
6265 4037 mt 6265 4037 L
 899 3767 mt 6265 3767 L
6265 3767 mt 6265 3767 L
 899 3497 mt 6265 3497 L
6265 3497 mt 6265 3497 L
SO
6 w
 899 4578 mt 6265 4578 L
 899 3497 mt 6265 3497 L
 899 4578 mt  899 3497 L
6265 4578 mt 6265 3497 L
 899 4578 mt 6265 4578 L
 899 4578 mt  899 3497 L
 900 4578 mt  900 4524 L
 900 3497 mt  900 3550 L
 817 4723 mt 
(2.4) s
1387 4578 mt 1387 4524 L
1387 3497 mt 1387 3550 L
1304 4723 mt 
(2.6) s
1875 4578 mt 1875 4524 L
1875 3497 mt 1875 3550 L
1792 4723 mt 
(2.8) s
2363 4578 mt 2363 4524 L
2363 3497 mt 2363 3550 L
2330 4723 mt 
(3) s
2850 4578 mt 2850 4524 L
2850 3497 mt 2850 3550 L
2767 4723 mt 
(3.2) s
3338 4578 mt 3338 4524 L
3338 3497 mt 3338 3550 L
3255 4723 mt 
(3.4) s
3826 4578 mt 3826 4524 L
3826 3497 mt 3826 3550 L
3743 4723 mt 
(3.6) s
4314 4578 mt 4314 4524 L
4314 3497 mt 4314 3550 L
4231 4723 mt 
(3.8) s
4801 4578 mt 4801 4524 L
4801 3497 mt 4801 3550 L
4768 4723 mt 
(4) s
5289 4578 mt 5289 4524 L
5289 3497 mt 5289 3550 L
5206 4723 mt 
(4.2) s
5777 4578 mt 5777 4524 L
5777 3497 mt 5777 3550 L
5694 4723 mt 
(4.4) s
 899 4578 mt  953 4578 L
6265 4578 mt 6211 4578 L
 629 4622 mt 
(-0.1) s
 899 4307 mt  953 4307 L
6265 4307 mt 6211 4307 L
 562 4351 mt 
(-0.05) s
 899 4037 mt  953 4037 L
6265 4037 mt 6211 4037 L
 799 4081 mt 
(0) s
 899 3767 mt  953 3767 L
6265 3767 mt 6211 3767 L
 632 3811 mt 
(0.05) s
 899 3497 mt  953 3497 L
6265 3497 mt 6211 3497 L
 699 3541 mt 
(0.1) s
 899 4578 mt 6265 4578 L
 899 3497 mt 6265 3497 L
 899 4578 mt  899 3497 L
6265 4578 mt 6265 3497 L
gs 899 3497 5367 1082 MR c np
DA
c8
9 -508 10 -15 10 6 9 -22 10 6 10 3 10 -9 10 0 
9 -1 10 1 10 6 10 1 9 -5 10 -3 10 0 10 1 
10 2 9 0 10 -2 10 -1 10 0 9 1 10 0 10 -1 
10 1 9 2 10 -2 10 0 10 5 10 2 9 -5 10 -3 
10 0 10 0 9 3 10 2 10 -2 10 -2 10 -1 9 0 
10 1 10 2 10 0 9 -2 10 -1 10 0 10 2 10 3 
9 1 10 -2 10 -3 10 -1 9 1 10 2 10 0 10 -1 
9 -2 10 0 10 0 10 0 10 1 9 1 10 2 10 1 
10 -3 9 -2 10 0 10 0 10 1 10 1 9 0 10 -1 
10 -1 10 1 9 0 10 -1 10 0 10 1 10 1 9 1 
10 0 10 0 10 -2 9 -1 10 0 10 0 10 0 9 0 
10 0 10 0 10 1 10 0 9 -1 10 0 10 0 10 0 
9 0 10 0 10 2 5053 4035 100 MP stroke
10 2 10 1 9 -1 10 -2 10 0 10 1 9 1 10 -1 
10 -2 10 -1 10 2 9 0 10 -1 10 0 10 -1 9 1 
10 0 10 -1 10 0 9 0 10 0 10 1 10 0 10 -1 
9 1 10 4 10 -1 10 -4 9 1 10 3 10 -1 10 -3 
10 0 9 1 10 -1 10 0 10 0 9 1 10 2 10 0 
10 -1 10 -2 9 0 10 2 10 2 10 1 9 -1 10 -2 
10 -1 10 0 9 0 10 -1 10 0 10 0 10 0 9 0 
10 1 10 1 10 0 9 -1 10 -1 10 1 10 2 10 1 
9 -1 10 -2 10 -1 10 0 9 2 10 3 10 1 10 -2 
10 -2 9 -1 10 -1 10 0 10 0 9 0 10 0 10 1 
10 2 9 2 10 -2 10 -3 10 2 10 1 9 -2 10 -1 
10 1 10 0 9 -1 10 0 10 0 10 0 10 1 9 -1 
10 2 10 3 10 0 4085 4032 100 MP stroke
9 -4 10 -1 10 0 10 0 10 1 9 1 10 -1 10 -1 
10 1 9 -1 10 1 10 2 10 -1 9 -2 10 0 10 1 
10 4 10 6 9 -1 10 -6 10 -3 10 0 9 4 10 6 
10 0 10 -7 10 -4 9 0 10 0 10 4 10 4 9 -1 
10 -5 10 -2 10 0 10 1 9 1 10 -1 10 -1 10 0 
9 0 10 2 10 5 10 1 9 -5 10 -3 10 0 10 0 
10 0 9 0 10 0 10 0 10 0 9 0 10 1 10 2 
10 -2 10 -1 9 0 10 0 10 0 10 2 9 -1 10 -1 
10 4 10 3 9 -2 10 -3 10 -1 10 0 10 1 9 0 
10 -1 10 -1 10 0 9 1 10 3 10 0 10 -3 10 -1 
9 0 10 0 10 4 10 2 9 -3 10 -3 10 2 10 0 
10 -2 9 3 10 1 10 -3 10 -1 9 1 10 -1 10 1 
10 2 9 -2 10 -1 3118 4037 100 MP stroke
10 2 10 -1 10 -1 9 1 10 -1 10 1 10 3 9 -1 
10 -2 10 -1 10 1 10 -1 9 2 10 2 10 -1 10 -2 
9 -1 10 2 10 4 10 2 10 -4 9 -4 10 0 10 0 
10 0 9 3 10 1 10 -2 10 -2 9 0 10 1 10 0 
10 0 10 -1 9 0 10 0 10 1 10 1 9 -1 10 -1 
10 1 10 0 10 -1 9 1 10 0 10 -1 10 0 9 0 
10 0 10 1 10 2 10 -1 9 -2 10 2 10 1 10 -3 
9 0 10 0 10 0 10 3 9 1 10 -3 10 -1 10 0 
10 0 9 3 10 3 10 -2 10 -3 9 -1 10 1 10 -1 
10 1 10 1 9 -1 10 -1 10 0 10 0 9 0 10 0 
10 0 10 1 10 1 9 -1 10 -1 10 0 10 0 9 0 
10 0 10 1 10 0 9 -1 10 0 10 0 10 0 10 0 
9 0 10 0 10 0 2150 4037 100 MP stroke
10 0 9 1 10 1 10 -1 10 -1 10 0 9 0 10 0 
10 0 10 0 9 0 10 0 10 1 10 1 10 -1 9 -1 
10 0 10 0 10 1 9 0 10 -1 10 0 10 0 9 0 
10 1 10 0 10 -1 10 1 9 2 10 0 10 -2 10 -1 
9 1 10 4 10 6 10 -1 10 -7 9 -3 10 1 10 -1 
10 3 9 4 10 -3 10 -4 10 2 10 0 9 -2 10 1 
10 1 10 -2 9 2 10 2 10 -3 10 -1 9 1 10 0 
10 -1 10 1 10 -1 9 0 10 1 10 0 10 -1 9 0 
10 0 10 1 10 2 10 -2 9 -1 10 2 10 0 10 -2 
9 2 10 1 10 -1 10 -2 10 0 9 0 10 1 10 0 
10 -1 9 1 10 1 10 -1 10 -1 9 0 10 3 10 3 
10 -2 10 -4 9 3 10 1 10 -4 10 4 9 2 10 -6 
10 12 10 10 10 -19 1182 4034 100 MP stroke
9 11 10 25 10 -39 10 268 1143 3769 5 MP stroke
gr

c8
DA
gs 1070 3424 5024 687 MR c np
SO
  36   36 1143 3769 FO
  36   36 1153 4037 FO
  36   36 1163 3998 FO
  36   36 1173 4023 FO
  36   36 1182 4034 FO
  36   36 1192 4015 FO
  36   36 1202 4025 FO
  36   36 1212 4037 FO
  36   36 1222 4031 FO
  36   36 1231 4033 FO
  36   36 1241 4037 FO
  36   36 1251 4033 FO
  36   36 1261 4034 FO
  36   36 1270 4037 FO
  36   36 1280 4033 FO
  36   36 1290 4031 FO
  36   36 1300 4034 FO
  36   36 1310 4037 FO
  36   36 1319 4037 FO
  36   36 1329 4036 FO
  36   36 1339 4035 FO
  36   36 1349 4036 FO
  36   36 1358 4037 FO
  36   36 1368 4036 FO
  36   36 1378 4036 FO
  36   36 1388 4037 FO
  36   36 1397 4037 FO
  36   36 1407 4037 FO
  36   36 1417 4035 FO
  36   36 1427 4034 FO
  36   36 1437 4035 FO
  36   36 1446 4037 FO
  36   36 1456 4035 FO
  36   36 1466 4035 FO
  36   36 1476 4037 FO
  36   36 1485 4036 FO
  36   36 1495 4034 FO
  36   36 1505 4036 FO
  36   36 1515 4037 FO
  36   36 1525 4037 FO
  36   36 1534 4037 FO
  36   36 1544 4036 FO
  36   36 1554 4036 FO
  36   36 1564 4037 FO
  36   36 1573 4037 FO
  36   36 1583 4036 FO
  36   36 1593 4037 FO
  36   36 1603 4036 FO
  36   36 1613 4036 FO
  36   36 1622 4037 FO
  36   36 1632 4036 FO
  36   36 1642 4033 FO
  36   36 1652 4035 FO
  36   36 1661 4037 FO
  36   36 1671 4035 FO
  36   36 1681 4036 FO
  36   36 1691 4037 FO
  36   36 1700 4035 FO
  36   36 1710 4035 FO
  36   36 1720 4037 FO
  36   36 1730 4033 FO
  36   36 1740 4030 FO
  36   36 1749 4034 FO
  36   36 1759 4037 FO
  36   36 1769 4036 FO
  36   36 1779 4037 FO
  36   36 1788 4034 FO
  36   36 1798 4027 FO
  36   36 1808 4026 FO
  36   36 1818 4032 FO
  36   36 1828 4036 FO
  36   36 1837 4037 FO
  36   36 1847 4036 FO
  36   36 1857 4034 FO
  36   36 1867 4034 FO
  36   36 1876 4036 FO
  36   36 1886 4037 FO
  36   36 1896 4036 FO
  36   36 1906 4036 FO
  36   36 1916 4037 FO
  36   36 1925 4037 FO
  36   36 1935 4037 FO
  36   36 1945 4037 FO
  36   36 1955 4036 FO
  36   36 1964 4036 FO
  36   36 1974 4037 FO
  36   36 1984 4037 FO
  36   36 1994 4037 FO
  36   36 2003 4036 FO
  36   36 2013 4035 FO
  36   36 2023 4036 FO
  36   36 2033 4037 FO
  36   36 2043 4037 FO
  36   36 2052 4037 FO
  36   36 2062 4037 FO
  36   36 2072 4037 FO
  36   36 2082 4037 FO
  36   36 2091 4037 FO
  36   36 2101 4037 FO
  36   36 2111 4036 FO
  36   36 2121 4035 FO
  36   36 2131 4036 FO
  36   36 2140 4037 FO
  36   36 2150 4037 FO
  36   36 2160 4037 FO
  36   36 2170 4037 FO
  36   36 2179 4037 FO
  36   36 2189 4037 FO
  36   36 2199 4037 FO
  36   36 2209 4037 FO
  36   36 2219 4037 FO
  36   36 2228 4036 FO
  36   36 2238 4036 FO
  36   36 2248 4037 FO
  36   36 2258 4037 FO
  36   36 2267 4037 FO
  36   36 2277 4037 FO
  36   36 2287 4037 FO
  36   36 2297 4036 FO
  36   36 2306 4035 FO
  36   36 2316 4036 FO
  36   36 2326 4037 FO
  36   36 2336 4037 FO
  36   36 2346 4037 FO
  36   36 2355 4037 FO
  36   36 2365 4037 FO
  36   36 2375 4037 FO
  36   36 2385 4036 FO
  36   36 2394 4035 FO
  36   36 2404 4036 FO
  36   36 2414 4037 FO
  36   36 2424 4036 FO
  36   36 2434 4037 FO
  36   36 2443 4036 FO
  36   36 2453 4033 FO
  36   36 2463 4031 FO
  36   36 2473 4034 FO
  36   36 2482 4037 FO
  36   36 2492 4037 FO
  36   36 2502 4037 FO
  36   36 2512 4036 FO
  36   36 2522 4033 FO
  36   36 2531 4034 FO
  36   36 2541 4037 FO
  36   36 2551 4037 FO
  36   36 2561 4037 FO
  36   36 2570 4037 FO
  36   36 2580 4034 FO
  36   36 2590 4035 FO
  36   36 2600 4037 FO
  36   36 2609 4035 FO
  36   36 2619 4034 FO
  36   36 2629 4036 FO
  36   36 2639 4037 FO
  36   36 2649 4037 FO
  36   36 2658 4037 FO
  36   36 2668 4037 FO
  36   36 2678 4036 FO
  36   36 2688 4036 FO
  36   36 2697 4037 FO
  36   36 2707 4036 FO
  36   36 2717 4036 FO
  36   36 2727 4037 FO
  36   36 2737 4036 FO
  36   36 2746 4035 FO
  36   36 2756 4036 FO
  36   36 2766 4037 FO
  36   36 2776 4037 FO
  36   36 2785 4037 FO
  36   36 2795 4036 FO
  36   36 2805 4036 FO
  36   36 2815 4036 FO
  36   36 2825 4037 FO
  36   36 2834 4037 FO
  36   36 2844 4035 FO
  36   36 2854 4033 FO
  36   36 2864 4034 FO
  36   36 2873 4037 FO
  36   36 2883 4037 FO
  36   36 2893 4037 FO
  36   36 2903 4037 FO
  36   36 2912 4033 FO
  36   36 2922 4029 FO
  36   36 2932 4031 FO
  36   36 2942 4035 FO
  36   36 2952 4037 FO
  36   36 2961 4036 FO
  36   36 2971 4034 FO
  36   36 2981 4033 FO
  36   36 2991 4035 FO
  36   36 3000 4037 FO
  36   36 3010 4036 FO
  36   36 3020 4037 FO
  36   36 3030 4036 FO
  36   36 3040 4034 FO
  36   36 3049 4033 FO
  36   36 3059 4036 FO
  36   36 3069 4037 FO
  36   36 3079 4036 FO
  36   36 3088 4037 FO
  36   36 3098 4036 FO
  36   36 3108 4035 FO
  36   36 3118 4037 FO
  36   36 3128 4036 FO
  36   36 3137 4034 FO
  36   36 3147 4036 FO
  36   36 3157 4037 FO
  36   36 3167 4036 FO
  36   36 3176 4037 FO
  36   36 3186 4036 FO
  36   36 3196 4033 FO
  36   36 3206 4034 FO
  36   36 3215 4037 FO
  36   36 3225 4035 FO
  36   36 3235 4035 FO
  36   36 3245 4037 FO
  36   36 3255 4034 FO
  36   36 3264 4031 FO
  36   36 3274 4033 FO
  36   36 3284 4037 FO
  36   36 3294 4037 FO
  36   36 3303 4037 FO
  36   36 3313 4036 FO
  36   36 3323 4033 FO
  36   36 3333 4033 FO
  36   36 3343 4036 FO
  36   36 3352 4037 FO
  36   36 3362 4037 FO
  36   36 3372 4036 FO
  36   36 3382 4035 FO
  36   36 3391 4035 FO
  36   36 3401 4036 FO
  36   36 3411 4036 FO
  36   36 3421 4035 FO
  36   36 3431 4032 FO
  36   36 3440 4030 FO
  36   36 3450 4033 FO
  36   36 3460 4037 FO
  36   36 3470 4036 FO
  36   36 3479 4035 FO
  36   36 3489 4037 FO
  36   36 3499 4037 FO
  36   36 3509 4037 FO
  36   36 3518 4037 FO
  36   36 3528 4036 FO
  36   36 3538 4034 FO
  36   36 3548 4036 FO
  36   36 3558 4037 FO
  36   36 3567 4037 FO
  36   36 3577 4037 FO
  36   36 3587 4037 FO
  36   36 3597 4037 FO
  36   36 3606 4037 FO
  36   36 3616 4037 FO
  36   36 3626 4037 FO
  36   36 3636 4037 FO
  36   36 3646 4034 FO
  36   36 3655 4029 FO
  36   36 3665 4030 FO
  36   36 3675 4035 FO
  36   36 3685 4037 FO
  36   36 3694 4037 FO
  36   36 3704 4037 FO
  36   36 3714 4036 FO
  36   36 3724 4035 FO
  36   36 3733 4036 FO
  36   36 3743 4037 FO
  36   36 3753 4037 FO
  36   36 3763 4035 FO
  36   36 3773 4030 FO
  36   36 3782 4029 FO
  36   36 3792 4033 FO
  36   36 3802 4037 FO
  36   36 3812 4037 FO
  36   36 3821 4037 FO
  36   36 3831 4033 FO
  36   36 3841 4026 FO
  36   36 3851 4026 FO
  36   36 3861 4032 FO
  36   36 3870 4036 FO
  36   36 3880 4036 FO
  36   36 3890 4033 FO
  36   36 3900 4027 FO
  36   36 3909 4026 FO
  36   36 3919 4032 FO
  36   36 3929 4036 FO
  36   36 3939 4037 FO
  36   36 3949 4037 FO
  36   36 3958 4035 FO
  36   36 3968 4034 FO
  36   36 3978 4036 FO
  36   36 3988 4037 FO
  36   36 3997 4036 FO
  36   36 4007 4037 FO
  36   36 4017 4036 FO
  36   36 4027 4035 FO
  36   36 4036 4036 FO
  36   36 4046 4037 FO
  36   36 4056 4037 FO
  36   36 4066 4037 FO
  36   36 4076 4036 FO
  36   36 4085 4032 FO
  36   36 4095 4032 FO
  36   36 4105 4035 FO
  36   36 4115 4037 FO
  36   36 4124 4036 FO
  36   36 4134 4037 FO
  36   36 4144 4037 FO
  36   36 4154 4037 FO
  36   36 4164 4037 FO
  36   36 4173 4036 FO
  36   36 4183 4036 FO
  36   36 4193 4037 FO
  36   36 4203 4036 FO
  36   36 4212 4034 FO
  36   36 4222 4035 FO
  36   36 4232 4037 FO
  36   36 4242 4034 FO
  36   36 4252 4032 FO
  36   36 4261 4034 FO
  36   36 4271 4036 FO
  36   36 4281 4037 FO
  36   36 4291 4037 FO
  36   36 4300 4037 FO
  36   36 4310 4037 FO
  36   36 4320 4037 FO
  36   36 4330 4036 FO
  36   36 4339 4035 FO
  36   36 4349 4033 FO
  36   36 4359 4031 FO
  36   36 4369 4032 FO
  36   36 4379 4035 FO
  36   36 4388 4037 FO
  36   36 4398 4037 FO
  36   36 4408 4036 FO
  36   36 4418 4034 FO
  36   36 4427 4033 FO
  36   36 4437 4034 FO
  36   36 4447 4036 FO
  36   36 4457 4037 FO
  36   36 4467 4036 FO
  36   36 4476 4035 FO
  36   36 4486 4035 FO
  36   36 4496 4036 FO
  36   36 4506 4037 FO
  36   36 4515 4037 FO
  36   36 4525 4037 FO
  36   36 4535 4037 FO
  36   36 4545 4037 FO
  36   36 4555 4036 FO
  36   36 4564 4036 FO
  36   36 4574 4036 FO
  36   36 4584 4035 FO
  36   36 4594 4033 FO
  36   36 4603 4032 FO
  36   36 4613 4033 FO
  36   36 4623 4035 FO
  36   36 4633 4037 FO
  36   36 4642 4037 FO
  36   36 4652 4035 FO
  36   36 4662 4034 FO
  36   36 4672 4034 FO
  36   36 4682 4036 FO
  36   36 4691 4037 FO
  36   36 4701 4037 FO
  36   36 4711 4037 FO
  36   36 4721 4036 FO
  36   36 4730 4037 FO
  36   36 4740 4037 FO
  36   36 4750 4034 FO
  36   36 4760 4033 FO
  36   36 4770 4036 FO
  36   36 4779 4037 FO
  36   36 4789 4033 FO
  36   36 4799 4032 FO
  36   36 4809 4036 FO
  36   36 4818 4037 FO
  36   36 4828 4036 FO
  36   36 4838 4036 FO
  36   36 4848 4037 FO
  36   36 4858 4037 FO
  36   36 4867 4037 FO
  36   36 4877 4037 FO
  36   36 4887 4036 FO
  36   36 4897 4036 FO
  36   36 4906 4037 FO
  36   36 4916 4036 FO
  36   36 4926 4036 FO
  36   36 4936 4035 FO
  36   36 4945 4035 FO
  36   36 4955 4037 FO
  36   36 4965 4036 FO
  36   36 4975 4034 FO
  36   36 4985 4033 FO
  36   36 4994 4034 FO
  36   36 5004 4035 FO
  36   36 5014 4035 FO
  36   36 5024 4033 FO
  36   36 5033 4032 FO
  36   36 5043 4033 FO
  36   36 5053 4035 FO
  36   36 5063 4037 FO
  36   36 5073 4037 FO
  36   36 5082 4037 FO
  36   36 5092 4037 FO
  36   36 5102 4037 FO
  36   36 5112 4037 FO
  36   36 5121 4036 FO
  36   36 5131 4036 FO
  36   36 5141 4037 FO
  36   36 5151 4037 FO
  36   36 5161 4037 FO
  36   36 5170 4037 FO
  36   36 5180 4037 FO
  36   36 5190 4037 FO
  36   36 5200 4037 FO
  36   36 5209 4036 FO
  36   36 5219 4034 FO
  36   36 5229 4034 FO
  36   36 5239 4034 FO
  36   36 5248 4035 FO
  36   36 5258 4036 FO
  36   36 5268 4037 FO
  36   36 5278 4037 FO
  36   36 5288 4036 FO
  36   36 5297 4036 FO
  36   36 5307 4037 FO
  36   36 5317 4036 FO
  36   36 5327 4035 FO
  36   36 5336 4035 FO
  36   36 5346 4036 FO
  36   36 5356 4037 FO
  36   36 5366 4037 FO
  36   36 5376 4037 FO
  36   36 5385 4035 FO
  36   36 5395 4032 FO
  36   36 5405 4033 FO
  36   36 5415 4035 FO
  36   36 5424 4036 FO
  36   36 5434 4037 FO
  36   36 5444 4037 FO
  36   36 5454 4037 FO
  36   36 5464 4037 FO
  36   36 5473 4035 FO
  36   36 5483 4034 FO
  36   36 5493 4034 FO
  36   36 5503 4036 FO
  36   36 5512 4037 FO
  36   36 5522 4036 FO
  36   36 5532 4033 FO
  36   36 5542 4031 FO
  36   36 5551 4032 FO
  36   36 5561 4035 FO
  36   36 5571 4037 FO
  36   36 5581 4037 FO
  36   36 5591 4036 FO
  36   36 5600 4034 FO
  36   36 5610 4034 FO
  36   36 5620 4036 FO
  36   36 5630 4037 FO
  36   36 5639 4037 FO
  36   36 5649 4036 FO
  36   36 5659 4034 FO
  36   36 5669 4032 FO
  36   36 5679 4034 FO
  36   36 5688 4037 FO
  36   36 5698 4037 FO
  36   36 5708 4037 FO
  36   36 5718 4034 FO
  36   36 5727 4029 FO
  36   36 5737 4031 FO
  36   36 5747 4036 FO
  36   36 5757 4036 FO
  36   36 5767 4034 FO
  36   36 5776 4036 FO
  36   36 5786 4037 FO
  36   36 5796 4036 FO
  36   36 5806 4036 FO
  36   36 5815 4037 FO
  36   36 5825 4037 FO
  36   36 5835 4036 FO
  36   36 5845 4034 FO
  36   36 5854 4034 FO
  36   36 5864 4036 FO
  36   36 5874 4037 FO
  36   36 5884 4037 FO
  36   36 5894 4034 FO
  36   36 5903 4029 FO
  36   36 5913 4030 FO
  36   36 5923 4036 FO
  36   36 5933 4037 FO
  36   36 5942 4036 FO
  36   36 5952 4036 FO
  36   36 5962 4027 FO
  36   36 5972 4030 FO
  36   36 5982 4036 FO
  36   36 5991 4014 FO
  36   36 6001 4020 FO
  36   36 6011 4005 FO
DA
gr

gs 899 3497 5367 1082 MR c np
gr

0 sg
 480 4171 mt  -90 rotate
(Error) s
90 rotate
 882 4621 mt 
( ) s
6249 3539 mt 
( ) s
SO
1 sg
0 188 1239 0 0 -188 4967 3745 4 MP
PP
-1239 0 0 188 1239 0 0 -188 4967 3745 5 MP stroke
4 w
DO
SO
6 w
0 sg
4967 3745 mt 6206 3745 L
4967 3557 mt 6206 3557 L
4967 3745 mt 4967 3557 L
6206 3745 mt 6206 3557 L
4967 3745 mt 6206 3745 L
4967 3745 mt 4967 3557 L
4967 3745 mt 6206 3745 L
4967 3557 mt 6206 3557 L
4967 3745 mt 4967 3557 L
6206 3745 mt 6206 3557 L
5415 3694 mt 
(Error squared) s
gs 4967 3557 1240 189 MR c np
DA
c8
345 0 5035 3651 2 MP stroke
SO
gs 5135 3578 147 147 MR c np
  36   36 5208 3651 FO
gr

gr

c8

end %%Color Dict

eplot
%%EndObject

epage
end

showpage

%%Trailer
%%EOF
