\relax 
\catcode `"\active 
\citation{design_principles}
\citation{decoding_grasp}
\citation{comp_cursor}
\select@language{portuguese}
\@writefile{toc}{\select@language{portuguese}}
\@writefile{lof}{\select@language{portuguese}}
\@writefile{lot}{\select@language{portuguese}}
\@writefile{toc}{\contentsline {section}{\numberline {1}Apresenta\IeC {\c c}\IeC {\~a}o do problema e motiva\IeC {\c c}\IeC {\~a}o}{1}}
\@writefile{toc}{\contentsline {section}{\numberline {2}Objetivos e metas}{2}}
\@writefile{toc}{\contentsline {section}{\numberline {3}Recursos e equipamentos}{2}}
\@writefile{toc}{\contentsline {section}{\numberline {4}Riscos e dificuldades}{2}}
\@writefile{toc}{\contentsline {section}{\numberline {5}Atividades a serem desenvolvidas}{3}}
\bibcite{design_principles}{1}
\bibcite{decoding_grasp}{2}
\bibcite{comp_cursor}{3}
