%FSLAX23Y23*%
%MOIN*%
G04 EasyPC Gerber Version 17.0 Build 3379 *
%ADD136R,0.00881X0.04424*%
%ADD146R,0.00900X0.01700*%
%ADD147R,0.01300X0.03200*%
%ADD138R,0.02100X0.02100*%
%ADD144R,0.02300X0.03900*%
%ADD137R,0.04424X0.00881*%
%ADD145R,0.01700X0.00900*%
%ADD140R,0.06900X0.01400*%
%ADD148R,0.04300X0.01500*%
%ADD139R,0.02100X0.02100*%
%ADD149R,0.03637X0.03991*%
%ADD141R,0.03640X0.04030*%
%ADD143R,0.05200X0.06800*%
%ADD142R,0.04030X0.03640*%
%ADD99R,0.06000X0.06000*%
X0Y0D02*
D02*
D99*
X3954Y4439D03*
X4088D03*
D02*
D136*
X4274Y4311D03*
Y4760D03*
X4294Y4311D03*
Y4760D03*
X4313Y4311D03*
Y4760D03*
X4333Y4311D03*
Y4760D03*
X4353Y4311D03*
Y4760D03*
X4373Y4311D03*
Y4760D03*
X4392Y4311D03*
Y4760D03*
X4412Y4311D03*
Y4760D03*
X4432Y4311D03*
Y4760D03*
X4451Y4311D03*
Y4760D03*
X4471Y4311D03*
Y4760D03*
X4491Y4311D03*
Y4760D03*
X4510Y4311D03*
Y4760D03*
X4530Y4311D03*
Y4760D03*
X4550Y4311D03*
Y4760D03*
X4569Y4311D03*
Y4760D03*
D02*
D137*
X4197Y4387D03*
Y4407D03*
Y4427D03*
Y4447D03*
Y4466D03*
Y4486D03*
Y4506D03*
Y4525D03*
Y4545D03*
Y4565D03*
Y4584D03*
Y4604D03*
Y4624D03*
Y4643D03*
Y4663D03*
Y4683D03*
X4646Y4387D03*
Y4407D03*
Y4427D03*
Y4447D03*
Y4466D03*
Y4486D03*
Y4506D03*
Y4525D03*
Y4545D03*
Y4565D03*
Y4584D03*
Y4604D03*
Y4624D03*
Y4643D03*
Y4663D03*
Y4683D03*
D02*
D138*
X4123Y4545D03*
Y4584D03*
X4191Y3298D03*
Y3337D03*
X4721Y4661D03*
Y4700D03*
X4723Y4516D03*
Y4555D03*
X4758Y4662D03*
Y4701D03*
X4759Y4516D03*
Y4555D03*
X5058Y4026D03*
Y4065D03*
X5113Y3820D03*
Y3859D03*
D02*
D139*
X4076Y4368D03*
Y4502D03*
X4115Y4368D03*
Y4502D03*
X4581Y4200D03*
Y4240D03*
X4620Y4200D03*
Y4240D03*
X4876Y4081D03*
X4915D03*
X4930Y3775D03*
X4969D03*
X5157Y4599D03*
X5196D03*
D02*
D140*
X4427Y3746D03*
Y3771D03*
Y3797D03*
Y3823D03*
Y3848D03*
Y3874D03*
Y3899D03*
Y3925D03*
Y3950D03*
Y3976D03*
Y4002D03*
Y4027D03*
Y4053D03*
Y4078D03*
X4715Y3746D03*
Y3771D03*
Y3797D03*
Y3823D03*
Y3848D03*
Y3874D03*
Y3899D03*
Y3925D03*
Y3950D03*
Y3976D03*
Y4002D03*
Y4027D03*
Y4053D03*
Y4078D03*
D02*
D141*
X3999Y4554D03*
X4069D03*
D02*
D142*
X4131Y3271D03*
Y3341D03*
D02*
D143*
X4875Y3840D03*
Y4013D03*
X4969Y3840D03*
Y4013D03*
D02*
D144*
X5113Y4381D03*
Y4545D03*
X5115Y4052D03*
Y4216D03*
X5198Y4381D03*
Y4545D03*
X5200Y4052D03*
Y4216D03*
D02*
D145*
X4101Y3425D03*
Y3445D03*
Y3465D03*
Y3485D03*
Y3505D03*
X4200Y3425D03*
Y3445D03*
Y3465D03*
Y3485D03*
Y3505D03*
D02*
D146*
X4130Y3415D03*
Y3515D03*
X4150Y3415D03*
Y3515D03*
X4170Y3415D03*
Y3515D03*
D02*
D147*
X3998Y4943D03*
Y5008D03*
X4030Y4943D03*
Y5008D03*
X4062Y4943D03*
Y5008D03*
X4094Y4943D03*
Y5008D03*
X4190Y4942D03*
Y5007D03*
X4222Y4942D03*
Y5007D03*
X4254Y4942D03*
Y5007D03*
X4286Y4942D03*
Y5007D03*
X4382Y4943D03*
Y5008D03*
X4414Y4943D03*
Y5008D03*
X4446Y4943D03*
Y5008D03*
X4478Y4943D03*
Y5008D03*
X4574Y4942D03*
Y5007D03*
X4606Y4942D03*
Y5007D03*
X4638Y4942D03*
Y5007D03*
X4670Y4942D03*
Y5007D03*
X4768Y4942D03*
Y5007D03*
X4800Y4942D03*
Y5007D03*
X4832Y4942D03*
Y5007D03*
X4864Y4942D03*
Y5007D03*
D02*
D148*
X4209Y3672D03*
Y3697D03*
Y3723D03*
X4291Y3672D03*
Y3723D03*
D02*
D149*
X5060Y3799D03*
Y3869D03*
X5497Y4358D03*
Y4428D03*
X0Y0D02*
M02*
